C:\Users\alalvarado\Desktop\TESTING\2-Repository_Definition\wiki_test_engine\src\test\java\uitest\sampler\test\LoginTest.java
C:\Users\alalvarado\Desktop\TESTING\2-Repository_Definition\wiki_test_engine\src\test\java\uitest\sampler\test\MyTestRunner.java
C:\Users\alalvarado\Desktop\TESTING\2-Repository_Definition\wiki_test_engine\src\test\java\uitest\sampler\DataAccess\DbConnection.java
C:\Users\alalvarado\Desktop\TESTING\2-Repository_Definition\wiki_test_engine\src\test\java\uitest\sampler\DataAccess\DbClient.java
C:\Users\alalvarado\Desktop\TESTING\2-Repository_Definition\wiki_test_engine\src\test\java\uitest\sampler\utils\WebDriverUtils.java
C:\Users\alalvarado\Desktop\TESTING\2-Repository_Definition\wiki_test_engine\src\test\java\uitest\sampler\pageObjects\LoginPage.java
